{
	"token": "your discord token",
	"clientId": "your bots client id",
	"testGuildId": "optional test guild ID (necessary in deploy-commands.js)",
	"mainGuildId": "your main guild ID",
	"modRole": "role that mods have",
	"managerRole": "role for managers",
	"ownerId": "owner of the bot id",
	"modmail": "id of modmail channel",
	"twitchToken": "your twitch token",
	"twitchId": "twitch id of channel to follow",
	"twitchChannels": ["name"],
	"alertChannel": "channel to send twitch alerts to",
	"pinboard": "channel to pin messages to",
	"alertRole": "role to ping in twitch alerts",
	"toggleableRoles": {
		"name": "id"},
	"strikeDecayTime": 28
}